{"items":[{"feedbackId":"dc74e039-ab54-4fcc-8891-74a9a07ea9e2","userId":"912479da-5f6b-4913-9865-c13cc7c63426","userName":"Nguyen Huu Giau","categoryId":1,"categoryName":"Garbage Collection","title":"E2E feedback test title 1781405695283","locationText":"Vị trí đã chọn: 10.780781, 106.681189","priority":"Medium","status":"Submitted","createdAt":"2026-06-14T02:55:23.146243Z","updatedAt":"2026-06-14T02:55:23.146243Z","attachmentCount":1,"commentCount":0,"supportCount":0},{"feedbackId":"4ad0cde9-2cca-48df-bc42-0cf4e728a502","userId":"912479da-5f6b-4913-9865-c13cc7c63426","userName":"Nguyen Huu Giau","categoryId":1,"categoryName":"Garbage Collection","title":"E2E feedback test title 1781405644376","locationText":"Vị trí đã chọn: 10.780698, 106.681017","priority":"Medium","status":"Submitted","createdAt":"2026-06-14T02:54:37.402957Z","updatedAt":"2026-06-14T02:54:37.402957Z","attachmentCount":1,"commentCount":2,"supportCount":0},{"feedbackId":"069b06b1-8fef-4fd1-b30d-dfeca00f510e","userId":"912479da-5f6b-4913-9865-c13cc7c63426","userName":"Nguyen Huu Giau","categoryId":1,"categoryName":"Garbage Collection","title":"E2E feedback test title 1781405609371","locationText":"Vị trí đã chọn: 10.780698, 106.681017","priority":"Medium","status":"Submitted","createdAt":"2026-06-14T02:53:49.827671Z","updatedAt":"2026-06-14T02:53:49.827671Z","attachmentCount":1,"commentCount":1,"supportCount":0},{"feedbackId":"881ce034-b665-4561-8639-7743a2f34e29","userId":"912479da-5f6b-4913-9865-c13cc7c63426","userName":"Nguyen Huu Giau","categoryId":1,"categoryName":"Garbage Collection","title":"E2E feedback test title 1781405468831","locationText":"Vị trí đã chọn: 10.780781, 106.681017","priority":"Medium","status":"Submitted","createdAt":"2026-06-14T02:51:30.990816Z","updatedAt":"2026-06-14T02:51:30.990816Z","attachmentCount":1,"commentCount":2,"supportCount":0},{"feedbackId":"f8b628ca-db44-4ea0-a5f4-c02ab31ec751","userId":"912479da-5f6b-4913-9865-c13cc7c63426","userName":"Nguyen Huu Giau","categoryId":1,"categoryName":"Garbage Collection","title":"E2E feedback test title 1781405462563","locationText":"Vị trí đã chọn: 10.780698, 106.681017","priority":"Medium","status":"Submitted","createdAt":"2026-06-14T02:51:09.244923Z","updatedAt":"2026-06-14T02:51:09.244923Z","attachmentCount":1,"commentCount":0,"supportCount":0},{"feedbackId":"36cbd843-48b4-47a8-be38-59fb21389675","userId":"912479da-5f6b-4913-9865-c13cc7c63426","userName":"Nguyen Huu Giau","categoryId":1,"categoryName":"Garbage Collection","title":"E2E feedback test title 1781405459465","locationText":"Vị trí đã chọn: 10.780698, 106.681017","priority":"Medium","status":"Submitted","createdAt":"2026-06-14T02:51:05.015451Z","updatedAt":"2026-06-14T02:51:05.015451Z","attachmentCount":1,"commentCount":1,"supportCount":0},{"feedbackId":"29230cc2-f099-4537-b504-e9978f807180","userId":"912479da-5f6b-4913-9865-c13cc7c63426","userName":"Nguyen Huu Giau","categoryId":1,"categoryName":"Garbage Collection","title":"E2E feedback test title 1781405275775","locationText":"Vị trí đã chọn: 10.780781, 106.681017","priority":"Medium","status":"Submitted","createdAt":"2026-06-14T02:48:16.473226Z","updatedAt":"2026-06-14T02:48:16.473226Z","attachmentCount":1,"commentCount":2,"supportCount":0},{"feedbackId":"97f4dc74-fb08-41ff-82ed-b57e092c0ad1","userId":"912479da-5f6b-4913-9865-c13cc7c63426","userName":"Nguyen Huu Giau","categoryId":1,"categoryName":"Garbage Collection","title":"E2E feedback test title 1781405275354","locationText":"Vị trí đã chọn: 10.780698, 106.681017","priority":"Medium","status":"Submitted","createdAt":"2026-06-14T02:48:03.135032Z","updatedAt":"2026-06-14T02:48:03.135032Z","attachmentCount":1,"commentCount":0,"supportCount":0},{"feedbackId":"0e531ecc-1b88-48f6-bcd4-85c200a4149b","userId":"912479da-5f6b-4913-9865-c13cc7c63426","userName":"Nguyen Huu Giau","categoryId":1,"categoryName":"Garbage Collection","title":"E2E feedback test title 1781405260073","locationText":"Vị trí đã chọn: 10.780698, 106.681017","priority":"Medium","status":"Submitted","createdAt":"2026-06-14T02:47:45.719773Z","updatedAt":"2026-06-14T02:47:45.719773Z","attachmentCount":1,"commentCount":2,"supportCount":0},{"feedbackId":"0aed26d2-23dc-4180-8647-c019c33a2ee8","userId":"912479da-5f6b-4913-9865-c13cc7c63426","userName":"Nguyen Huu Giau","categoryId":1,"categoryName":"Garbage Collection","title":"E2E feedback test title 1781405241561","locationText":"Vị trí đã chọn: 10.780781, 106.681017","priority":"Medium","status":"Submitted","createdAt":"2026-06-14T02:47:42.626411Z","updatedAt":"2026-06-14T02:47:42.626411Z","attachmentCount":1,"commentCount":0,"supportCount":0}],"pageNumber":1,"pageSize":10,"totalItems":44,"totalPages":5,"hasPreviousPage":false,"hasNextPage":true}